The Mindfulness Study • multimedia
…
Evaluating Effects

With this model, we can estimate direct and indirect effects. We’re
averaging over different settings of the mediator treatment variables.
Since the LNM model outputs relative abundance profiles, all the
estimated effects should be interpreted on a probability scale.

direct <- direct_effect(model, exper)
direct |>
    group_by(outcome) |>
    summarise(direct_effect = mean(direct_effect)) |>
    arrange(-abs(direct_effect))

#> # A tibble: 55 × 2
#>    outcome          direct_effect
#>                        
#>  1 Blautia               -0.0597 
#>  2 Faecalibacterium      -0.0315 
#>  3 Bifidobacterium        0.0146 
#>  4 Prevotella             0.00965
#>  5 Clostridium_XlVa       0.00711
#>  6 Ruminococcus           0.00695
#>  7 Dorea                  0.00677
#>  8 Clostridium_IV        -0.00613
#>  9 Roseburia             -0.00488
#> 10 Oscillibacter          0.00480
#> # ℹ 45 more rows

These are the indirect effects when we set mediators to the treatment
setting one at a time.

indirect <- indirect_pathwise(model, exper) |>
    group_by(mediator, outcome) |>
    summarise(indirect_effect = mean(indirect_effect)) |>
    arrange(-abs(indirect_effect))
indirect

#> # A tibble: 220 × 3
#> # Groups:   mediator [4]
#>    mediator                    outcome          indirect_effect
#>                                                 
#>  1 mediator.Fruit..not.juices. Faecalibacterium         0.00813
#>  2 mediator.sleepDistRaw       Faecalibacterium        -0.00810
#>  3 mediator.sleepDistRaw       Roseburia               -0.00710
#>  4 mediator.fatigueRaw         Blautia                 -0.00683
#>  5 mediator.fatigueRaw         Faecalibacterium         0.00547
#>  6 mediator.fatigueRaw         Roseburia                0.00467
#>  7 mediator.Fruit..not.juices. Ruminococcus             0.00354
#>  8 mediator.sleepDistRaw       Blautia                  0.00301
#>  9 mediator.Cold.cereal        Blautia                  0.00216
#> 10 mediator.Fruit..not.juices. Blautia                  0.00210
#> # ℹ 210 more rows
…
direct <- direct_effect(model, exper_rela)
direct_sorted <- direct |>
    group_by(outcome, contrast) |>
    summarise(direct_effect = mean(direct_effect)) |>
    arrange(-direct_effect)

indirect_sorted <- indirect_pathwise(model, exper_rela) |>
    group_by(outcome, mediator, contrast) |>
    summarise(indirect_effect = mean(indirect_effect)) |>
    arrange(-abs(indirect_effect))

direct_sorted

#> # A tibble: 55 × 3
#> # Groups:   outcome [55]
#>    outcome               contrast            direct_effect
#>                                            
#>  1 Ruminococcus          Control - Treatment      0.00476 
#>  2 Faecalibacterium      Control - Treatment      0.00309 
#>  3 Coprococcus           Control - Treatment      0.00251 
#>  4 Roseburia             Control - Treatment      0.00243 
#>  5 Gemmiger              Control - Treatment      0.00109 
#>  6 Parabacteroides       Control - Treatment      0.00108 
#>  7 Dorea                 Control - Treatment      0.000857
#>  8 Streptococcus         Control - Treatment      0.000842
#>  9 Bacteroides           Control - Treatment      0.000295
#> 10 Phascolarctobacterium Control - Treatment      0.000210
#> # ℹ 45 more rows

indirect_sorted

#> # A tibble: 220 × 4
#> # Groups:   outcome, mediator [220]
#>    outcome          mediator                    contrast         indirect_effect
#>                                                             
#>  1 Ruminococcus     mediator.Cold.cereal        Control - Treat…        -0.0104 
#>  2 Blautia          mediator.sleepDistRaw       Control - Treat…         0.00762
#>  3 Blautia          mediator.Cold.cereal        Control - Treat…         0.00670
#>  4 Clostridium_IV   mediator.Cold.cereal        Control - Treat…        -0.00627
#>  5 Prevotella       mediator.Fruit..not.juices. Control - Treat…        -0.00527
#>  6 Prevotella       mediator.Cold.cereal        Control - Treat…         0.00504
#>  7 Faecalibacterium mediator.Fruit..not.juices. Control - Treat…         0.00497
#>  8 Bacteroides      mediator.Cold.cereal        Control - Treat…         0.00453
#>  9 Ruminococcus     mediator.Fruit..not.juices. Control - Treat…         0.00406
#> 10 Faecalibacterium mediator.sleepDistRaw       Control - Treat…        -0.00367
#> # ℹ 210 more rows
…
