Quick Start with Random Data • multimedia
…
Inference

Effect estimates are rarely enough on their own. We need some
uncertainty assessments to set appropriate expectations. The most
straightforward approach is to use the bootstrap. Each element in
funs will get its own data.frame with the bootstrap
distribution for that estimator.

funs <- list(direct_effect = direct_effect)
bootstrap(model, exper, funs, B = 100)

#> $direct_effect
#> # A tibble: 200 × 5
#>    bootstrap outcome indirect_setting contrast            direct_effect
#>                                              
#>  1 1         PHQ     Control          Control - Treatment      -0.0796 
#>  2 1         PHQ     Treatment        Control - Treatment      -0.0796 
#>  3 2         PHQ     Control          Control - Treatment      -0.00809
#>  4 2         PHQ     Treatment        Control - Treatment      -0.00809
#>  5 3         PHQ     Control          Control - Treatment       0      
#>  6 3         PHQ     Treatment        Control - Treatment       0      
#>  7 4         PHQ     Control          Control - Treatment       0.00630
#>  8 4         PHQ     Treatment        Control - Treatment       0.00630
#>  9 5         PHQ     Control          Control - Treatment       0      
#> 10 5         PHQ     Treatment        Control - Treatment       0      
#> # ℹ 190 more rows
…
