Bootstrap Distribution for Estimators — bootstrap • multimedia
…
#> [========================================================>---] 95/100 ETA:  0s
#> 
#> [=========================================================>--] 96/100 ETA:  0s
#> 
#> [=========================================================>--] 97/100 ETA:  0s
#> 
#> [==========================================================>-] 98/100 ETA:  0s
#> 
#> [==========================================================>-] 99/100 ETA:  0s
#> 
#> [===========================================================] 100/100 ETA:  0s
#>                                                                               
#> 
#> $direct_effect
#> # A tibble: 200 × 5
#>    bootstrap outcome indirect_setting contrast            direct_effect
#>    <chr>     <chr>   <fct>            <glue>                      <dbl>
#>  1 1         PHQ     Control          Control - Treatment         0.410
#>  2 1         PHQ     Treatment        Control - Treatment         0.410
#>  3 2         PHQ     Control          Control - Treatment        -0.172
#>  4 2         PHQ     Treatment        Control - Treatment        -0.172
#>  5 3         PHQ     Control          Control - Treatment         0.127
#>  6 3         PHQ     Treatment        Control - Treatment         0.127
#>  7 4         PHQ     Control          Control - Treatment         0.509
#>  8 4         PHQ     Treatment        Control - Treatment         0.509
#>  9 5         PHQ     Control          Control - Treatment         0.319
#> 10 5         PHQ     Treatment        Control - Treatment         0.319
#> # ℹ 190 more rows
…
