Sample New Mediator/Outcome Data — sample,multimedia-method • multimedia
…
# sampling with just different "n" has no effect.
samples <- sample(fit, 100)
#> Warning: The size argument in sample is ignored. Please adjust the treatment profile to
#> adjust the number of samples.

# Instead sample at a new treatment configuration
t1 <- data.frame(treatment = factor(rep(c(0, 1), each = 50)))
profile <- setup_profile(fit, t_mediator = t1, t_outcome = t1)
samples <- sample(fit, profile = profile)
mediators(samples)
#> # A tibble: 100 × 1
#>    mediator
#>       <dbl>
#>  1   1.26  
#>  2   0.0556
#>  3   0.648 
#>  4   1.46  
#>  5  -1.89  
#>  6  -1.81  
#>  7  -1.73  
#>  8  -2.75  
#>  9  -0.366 
#> 10  -3.61  
#> # ℹ 90 more rows
outcomes(samples)
#> # A tibble: 100 × 2
#>    outcome_1 outcome_2
#>        <dbl>     <dbl>
#>  1    0.402     0.226 
#>  2    0.665     0.103 
#>  3   -1.43      1.10  
#>  4    0.479     0.0434
#>  5   -0.368     1.74  
#>  6    1.34      0.0755
#>  7    0.638     1.97  
#>  8   -0.0681    0.152 
#>  9   -0.295     1.29  
#> 10    1.37      0.0255
#> # ℹ 90 more rows
…
