Sensitivity to User-Specified Perturbations — sensitivity_perturb • multimedia
…
    exper,
    outcome_estimator = glmnet_model(lambda = 1e-2)
) |>
    estimate(exper)
rho_seq <- c(-0.2, 0.2)
perturb <- matrix(
    c(
        0, 3, 0,
        3, 0, 0,
        0, 0, 0
    ),
    nrow = 3, byrow = TRUE
)
sensitivity_perturb(model, exper, perturb, n_bootstrap = 2)
#> # A tibble: 24 × 6
#> # Groups:   outcome, direct_setting, contrast [4]
#>        nu outcome direct_setting contrast indirect_effect indirect_effect_stan…¹
#>     <dbl> <chr>   <fct>          <chr>              <dbl>                  <dbl>
#>  1 -1 e-1 outcom… 0              0 - 1             -0.140                0.00265
#>  2 -6 e-2 outcom… 0              0 - 1             -0.234                0.0293 
#>  3 -2 e-2 outcom… 0              0 - 1             -0.279                0.00602
#>  4  2.e-2 outcom… 0              0 - 1             -0.312                0.00412
#>  5  6 e-2 outcom… 0              0 - 1             -0.363                0.0106 
#>  6  1 e-1 outcom… 0              0 - 1             -0.422                0.00704
#>  7 -1 e-1 outcom… 1              0 - 1             -0.140                0.00265
#>  8 -6 e-2 outcom… 1              0 - 1             -0.234                0.0293 
#>  9 -2 e-2 outcom… 1              0 - 1             -0.279                0.00602
#> 10  2.e-2 outcom… 1              0 - 1             -0.312                0.00412
#> # ℹ 14 more rows
#> # ℹ abbreviated name: ¹​indirect_effect_standard_error
…
